<svg width="140" height="140" viewBox="0 0 140 140" fill="none" xmlns="http://www.w3.org/2000/svg">
<circle cx="70" cy="70" r="67" stroke="#FFA466" stroke-width="6"/>
<mask id="path-2-outside-1" maskUnits="userSpaceOnUse" x="15.5377" y="24.2237" width="113.287" height="110.223" fill="black">
<rect fill="white" x="15.5377" y="24.2237" width="113.287" height="110.223"/>
<path d="M60.4355 41.4137L61.9442 43.2354L63.1932 45.0008C67.386 50.1218 71.6069 55.1129 76.0139 59.8724L82.6805 66.752C82.9407 66.9411 83.1663 67.1739 83.3472 67.4399C84.2413 68.3999 85.242 69.2549 86.3297 69.9883C87.2254 70.4489 88.2524 70.587 89.2379 70.3795C90.2235 70.1719 91.1075 69.6314 91.7414 68.8487C94.2335 66.1258 94.5571 62.1182 94.3681 59.2229L93.9301 55.5941C93.776 53.7938 93.464 52.0952 93.4678 50.1931L94.086 47.3365L94.5142 46.6137L94.5985 46.2241L95.1566 45.5294C95.1641 45.495 95.1849 45.4649 95.2145 45.4458C95.2442 45.4267 95.2801 45.4202 95.3146 45.4276L95.3708 45.168L95.6867 44.9645C95.6941 44.93 95.7149 44.9 95.7446 44.8809C95.7742 44.8618 95.8102 44.8553 95.8446 44.8627L95.8727 44.7329C96.0025 44.761 96.1605 44.6592 96.1324 44.7891L96.3921 44.8453L96.613 45.7086L96.5568 45.9683L97.1179 48.4004L97.2545 49.6533L97.4018 50.2289L97.833 52.6329L99.2149 57.5533L100.076 67.3903C100.398 73.4405 100.562 79.5925 100.298 86.4674L100.311 88.9169C99.9374 99.438 99.6372 110.247 103.022 120.358C103.576 121.565 103.973 122.874 104.657 124.11C104.884 124.763 105.345 125.308 105.951 125.64C106.557 125.972 107.265 126.067 107.938 125.907C108.648 125.543 109.209 124.944 109.528 124.212C109.661 123.967 109.738 123.694 109.751 123.414C109.764 123.135 109.715 122.856 109.605 122.598C108.326 119.94 107.381 117.133 106.792 114.242L106.571 113.378L106.259 111.68L106.094 110.557L105.537 106.223C105.159 100.432 105.357 94.4942 105.498 88.8161L105.582 88.4265C105.978 76.5508 105.913 62.4009 103.242 48.3664L103.021 47.5031C102.47 44.3936 101.829 40.449 98.453 39.7184C95.0771 38.9879 91.9919 41.3105 90.335 43.9423C88.7847 46.619 88.1589 49.7318 88.5542 52.7997L88.8168 55.9827L89.0271 57.5234L89.3285 59.8993L88.2889 64.7035L87.8994 64.6192L87.1309 63.7733L86.7976 63.4293C84.4362 61.1513 82.1029 58.7435 79.7696 56.3356C75.131 51.39 71.2434 46.7429 67.0787 41.4921L66.1349 40.2005C64.5167 38.057 62.7832 36.003 60.9421 34.0476C58.914 32.1136 56.2929 29.7794 53.3802 29.4209C52.5593 29.2887 51.7195 29.3372 50.9193 29.5632C50.1192 29.7891 49.378 30.187 48.7476 30.7291C48.4035 31.0169 48.1212 31.3714 47.9179 31.7713C47.7146 32.1711 47.5943 32.608 47.5645 33.0556L47.2205 33.3889L46.9608 33.3327C46.1076 32.3638 45.0128 31.6382 43.788 31.2299C42.5632 30.8216 41.252 30.7452 39.9881 31.0083C38.6446 31.4107 37.4961 32.2932 36.7613 33.4877C36.0266 34.6823 35.7569 36.1054 36.0038 37.4859C36.4855 39.5397 37.3573 41.4818 38.5716 43.2067L38.4873 43.5962C38.3294 43.698 38.1714 43.7997 38.0416 43.7716C37.6038 43.5371 37.109 43.43 36.6133 43.4625C35.3224 43.3768 34.0431 43.7533 33.0045 44.5247C31.9659 45.2962 31.2358 46.4121 30.9449 47.6728C30.4111 50.1398 32.039 52.6669 33.3617 54.7201L36.7754 59.6724L36.7192 59.9321L36.4033 60.1356C35.1233 60.3208 33.9407 60.9254 33.041 61.8546C32.4052 62.6372 31.9933 63.5774 31.8492 64.5753C31.705 65.5733 31.834 66.5916 32.2223 67.5221C32.9274 68.9946 33.7597 70.4027 34.7098 71.7303L34.6817 71.8602L37.7727 75.7912C41.8375 81.193 46.3327 86.2568 51.2145 90.9331C53.7058 93.2393 56.1971 95.5454 58.7164 97.7216L62.9131 100.94C64.2124 101.815 65.4591 102.766 66.6466 103.787C67.3486 104.311 67.9942 104.906 68.5729 105.563C68.7028 105.591 68.8045 105.749 68.9062 105.907L69.1097 106.223L69.9518 107.357L69.7832 108.136L70.2076 109.315L71.0003 111.933L73.0062 120.251L74.139 124.438C74.2167 124.754 74.3619 125.05 74.5648 125.305C74.7677 125.56 75.0234 125.769 75.3144 125.916C75.6091 126.106 75.9463 126.22 76.2959 126.248C76.6456 126.277 76.9968 126.218 77.3182 126.077C77.6526 125.981 77.9636 125.817 78.2315 125.595C78.4995 125.373 78.7186 125.098 78.8752 124.787C79.0318 124.477 79.1225 124.137 79.1415 123.789C79.1605 123.442 79.1075 123.094 78.9857 122.768L76.3451 111.731C75.7742 108.724 74.6438 105.851 73.0127 103.262C71.2681 101.187 69.2344 99.3738 66.974 97.8775L65.9459 96.9754C63.4081 95.1406 60.9771 93.1623 58.665 91.0503C53.868 86.8943 49.3921 82.3816 45.2755 77.5508L44.9422 77.2068L44.9703 77.077L44.3317 76.2592L42.7212 74.2796L39.8618 70.5345L39.4548 69.9028L37.1602 66.6878L36.855 66.214C36.8587 66.1969 36.859 66.1793 36.8558 66.1621C36.8527 66.145 36.8463 66.1286 36.8368 66.1139C36.8274 66.0992 36.8151 66.0866 36.8008 66.0767C36.7864 66.0667 36.7703 66.0597 36.7532 66.056L36.8937 65.4068C36.9566 65.3712 37.026 65.3488 37.0978 65.341C37.1696 65.3332 37.2423 65.3401 37.3113 65.3613L37.2832 65.4911L37.5429 65.5473C37.6728 65.5754 37.7745 65.7333 37.9044 65.7614C38.0026 65.7913 38.0856 65.8579 38.1359 65.9475C39.164 66.8496 40.1921 67.7517 41.2483 68.5239C41.6626 68.9805 42.1184 69.3976 42.6097 69.77L52.0486 77.6573C52.588 78.064 53.2517 78.2713 53.9267 78.2439C54.6017 78.2165 55.2464 77.9561 55.751 77.507C56.2131 76.9918 56.4559 76.3167 56.4279 75.6253C56.3998 74.9338 56.1031 74.2806 55.6008 73.8046C52.6943 70.9561 49.9407 67.9555 47.3518 64.8156C46.6115 63.8398 46.1483 63.4677 45.6396 62.678L43.5941 60.1965L39.8189 55.03L39.4119 54.3983C38.3115 52.95 37.325 51.4187 36.4613 49.818C36.3596 49.6601 36.3877 49.5302 36.2578 49.5021L36.3421 49.1126C36.3077 49.1051 36.2776 49.0843 36.2585 49.0547C36.2395 49.0251 36.2329 48.9891 36.2404 48.9547C36.2478 48.9202 36.2686 48.8902 36.2983 48.8711C36.3279 48.852 36.3639 48.8455 36.3983 48.8529L36.4264 48.7231C36.4893 48.6875 36.5587 48.6651 36.6305 48.6573C36.7023 48.6494 36.775 48.6563 36.844 48.6775C37.0207 48.8256 37.2364 48.9195 37.4652 48.9479L37.4371 49.0777L37.6967 49.1339C38.4113 49.737 39.0885 50.3828 39.7248 51.0679L45.0862 56.4418L52.7528 64.3533L53.3178 64.8833L54.3914 66.203C54.4765 66.3198 54.5844 66.418 54.7087 66.4916C54.833 66.5653 54.971 66.6128 55.1143 66.6313L55.0862 66.7611L56.216 67.8212C56.4252 68.0766 56.6987 68.2717 57.0083 68.3865C57.3179 68.5013 57.6524 68.5315 57.9776 68.4742C58.3244 68.4942 58.6708 68.4288 58.9866 68.2839C59.3023 68.139 59.5777 67.9188 59.7886 67.6428C60.0342 67.3963 60.2262 67.1017 60.3526 66.7775C60.4789 66.4533 60.5368 66.1065 60.5227 65.7588C60.5086 65.4111 60.4228 65.0701 60.2706 64.7572C60.1184 64.4442 59.9031 64.1662 59.6383 63.9404L55.6384 59.8126L53.5473 56.9135C52.1684 55.12 50.8176 53.1966 49.3932 50.9854C47.9688 48.7742 44.3341 42.9585 42.0502 39.0662C41.8186 38.8802 41.7449 38.5924 41.6432 38.4345L41.6713 38.3046C41.5695 38.1467 41.5976 38.0168 41.4678 37.9887L41.2188 37.2552L41.4154 36.3463C41.4435 36.2165 41.4716 36.0866 41.6015 36.1147C41.7313 36.1428 41.7594 36.013 41.8893 36.0411L42.149 36.0973C42.2788 36.1254 42.4086 36.1535 42.3805 36.2833L42.6402 36.3395C42.6747 36.347 42.7047 36.3678 42.7238 36.3974C42.7429 36.427 42.7494 36.463 42.742 36.4975L43.177 36.9994C43.5005 37.2649 43.801 37.5573 44.0753 37.8734C45.6402 39.4353 47.1489 41.257 48.991 43.4226C50.833 45.5882 51.7313 46.4622 53.2119 48.4137C56.6644 52.5589 60.0607 56.9638 63.2991 61.4704C63.6815 62.0513 64.2765 62.459 64.9562 62.6061C65.636 62.7532 66.3463 62.6279 66.9347 62.2572C67.5134 61.8173 67.8975 61.1689 68.0054 60.45C68.0751 60.1608 68.0834 59.8602 68.0296 59.5676C67.9759 59.275 67.8613 58.997 67.6933 58.7514L58.8484 46.2354L54.0034 37.8471L53.4491 36.6397L53.0702 35.8781L53.1264 35.6184L52.9229 35.3026L52.951 35.1727C52.9287 35.1424 52.913 35.1076 52.9051 35.0708C52.8972 35.0339 52.8973 34.9958 52.9053 34.9589C52.9132 34.9221 52.9289 34.8874 52.9514 34.8571C52.9738 34.8268 53.0024 34.8016 53.0353 34.7832C53.0634 34.6534 53.1933 34.6814 53.3231 34.7095L53.5828 34.7657L54.046 35.1378L54.5653 35.2502C55.7283 36.1821 56.8268 37.1918 57.8531 38.2724C58.3366 38.6915 58.7827 39.1518 59.1864 39.6483L59.1583 39.7781L59.4636 40.252L60.4355 41.4137Z"/>
</mask>
<path d="M60.4355 41.4137L61.9442 43.2354L63.1932 45.0008C67.386 50.1218 71.6069 55.1129 76.0139 59.8724L82.6805 66.752C82.9407 66.9411 83.1663 67.1739 83.3472 67.4399C84.2413 68.3999 85.242 69.2549 86.3297 69.9883C87.2254 70.4489 88.2524 70.587 89.2379 70.3795C90.2235 70.1719 91.1075 69.6314 91.7414 68.8487C94.2335 66.1258 94.5571 62.1182 94.3681 59.2229L93.9301 55.5941C93.776 53.7938 93.464 52.0952 93.4678 50.1931L94.086 47.3365L94.5142 46.6137L94.5985 46.2241L95.1566 45.5294C95.1641 45.495 95.1849 45.4649 95.2145 45.4458C95.2442 45.4267 95.2801 45.4202 95.3146 45.4276L95.3708 45.168L95.6867 44.9645C95.6941 44.93 95.7149 44.9 95.7446 44.8809C95.7742 44.8618 95.8102 44.8553 95.8446 44.8627L95.8727 44.7329C96.0025 44.761 96.1605 44.6592 96.1324 44.7891L96.3921 44.8453L96.613 45.7086L96.5568 45.9683L97.1179 48.4004L97.2545 49.6533L97.4018 50.2289L97.833 52.6329L99.2149 57.5533L100.076 67.3903C100.398 73.4405 100.562 79.5925 100.298 86.4674L100.311 88.9169C99.9374 99.438 99.6372 110.247 103.022 120.358C103.576 121.565 103.973 122.874 104.657 124.11C104.884 124.763 105.345 125.308 105.951 125.64C106.557 125.972 107.265 126.067 107.938 125.907C108.648 125.543 109.209 124.944 109.528 124.212C109.661 123.967 109.738 123.694 109.751 123.414C109.764 123.135 109.715 122.856 109.605 122.598C108.326 119.94 107.381 117.133 106.792 114.242L106.571 113.378L106.259 111.68L106.094 110.557L105.537 106.223C105.159 100.432 105.357 94.4942 105.498 88.8161L105.582 88.4265C105.978 76.5508 105.913 62.4009 103.242 48.3664L103.021 47.5031C102.47 44.3936 101.829 40.449 98.453 39.7184C95.0771 38.9879 91.9919 41.3105 90.335 43.9423C88.7847 46.619 88.1589 49.7318 88.5542 52.7997L88.8168 55.9827L89.0271 57.5234L89.3285 59.8993L88.2889 64.7035L87.8994 64.6192L87.1309 63.7733L86.7976 63.4293C84.4362 61.1513 82.1029 58.7435 79.7696 56.3356C75.131 51.39 71.2434 46.7429 67.0787 41.4921L66.1349 40.2005C64.5167 38.057 62.7832 36.003 60.9421 34.0476C58.914 32.1136 56.2929 29.7794 53.3802 29.4209C52.5593 29.2887 51.7195 29.3372 50.9193 29.5632C50.1192 29.7891 49.378 30.187 48.7476 30.7291C48.4035 31.0169 48.1212 31.3714 47.9179 31.7713C47.7146 32.1711 47.5943 32.608 47.5645 33.0556L47.2205 33.3889L46.9608 33.3327C46.1076 32.3638 45.0128 31.6382 43.788 31.2299C42.5632 30.8216 41.252 30.7452 39.9881 31.0083C38.6446 31.4107 37.4961 32.2932 36.7613 33.4877C36.0266 34.6823 35.7569 36.1054 36.0038 37.4859C36.4855 39.5397 37.3573 41.4818 38.5716 43.2067L38.4873 43.5962C38.3294 43.698 38.1714 43.7997 38.0416 43.7716C37.6038 43.5371 37.109 43.43 36.6133 43.4625C35.3224 43.3768 34.0431 43.7533 33.0045 44.5247C31.9659 45.2962 31.2358 46.4121 30.9449 47.6728C30.4111 50.1398 32.039 52.6669 33.3617 54.7201L36.7754 59.6724L36.7192 59.9321L36.4033 60.1356C35.1233 60.3208 33.9407 60.9254 33.041 61.8546C32.4052 62.6372 31.9933 63.5774 31.8492 64.5753C31.705 65.5733 31.834 66.5916 32.2223 67.5221C32.9274 68.9946 33.7597 70.4027 34.7098 71.7303L34.6817 71.8602L37.7727 75.7912C41.8375 81.193 46.3327 86.2568 51.2145 90.9331C53.7058 93.2393 56.1971 95.5454 58.7164 97.7216L62.9131 100.94C64.2124 101.815 65.4591 102.766 66.6466 103.787C67.3486 104.311 67.9942 104.906 68.5729 105.563C68.7028 105.591 68.8045 105.749 68.9062 105.907L69.1097 106.223L69.9518 107.357L69.7832 108.136L70.2076 109.315L71.0003 111.933L73.0062 120.251L74.139 124.438C74.2167 124.754 74.3619 125.05 74.5648 125.305C74.7677 125.56 75.0234 125.769 75.3144 125.916C75.6091 126.106 75.9463 126.22 76.2959 126.248C76.6456 126.277 76.9968 126.218 77.3182 126.077C77.6526 125.981 77.9636 125.817 78.2315 125.595C78.4995 125.373 78.7186 125.098 78.8752 124.787C79.0318 124.477 79.1225 124.137 79.1415 123.789C79.1605 123.442 79.1075 123.094 78.9857 122.768L76.3451 111.731C75.7742 108.724 74.6438 105.851 73.0127 103.262C71.2681 101.187 69.2344 99.3738 66.974 97.8775L65.9459 96.9754C63.4081 95.1406 60.9771 93.1623 58.665 91.0503C53.868 86.8943 49.3921 82.3816 45.2755 77.5508L44.9422 77.2068L44.9703 77.077L44.3317 76.2592L42.7212 74.2796L39.8618 70.5345L39.4548 69.9028L37.1602 66.6878L36.855 66.214C36.8587 66.1969 36.859 66.1793 36.8558 66.1621C36.8527 66.145 36.8463 66.1286 36.8368 66.1139C36.8274 66.0992 36.8151 66.0866 36.8008 66.0767C36.7864 66.0667 36.7703 66.0597 36.7532 66.056L36.8937 65.4068C36.9566 65.3712 37.026 65.3488 37.0978 65.341C37.1696 65.3332 37.2423 65.3401 37.3113 65.3613L37.2832 65.4911L37.5429 65.5473C37.6728 65.5754 37.7745 65.7333 37.9044 65.7614C38.0026 65.7913 38.0856 65.8579 38.1359 65.9475C39.164 66.8496 40.1921 67.7517 41.2483 68.5239C41.6626 68.9805 42.1184 69.3976 42.6097 69.77L52.0486 77.6573C52.588 78.064 53.2517 78.2713 53.9267 78.2439C54.6017 78.2165 55.2464 77.9561 55.751 77.507C56.2131 76.9918 56.4559 76.3167 56.4279 75.6253C56.3998 74.9338 56.1031 74.2806 55.6008 73.8046C52.6943 70.9561 49.9407 67.9555 47.3518 64.8156C46.6115 63.8398 46.1483 63.4677 45.6396 62.678L43.5941 60.1965L39.8189 55.03L39.4119 54.3983C38.3115 52.95 37.325 51.4187 36.4613 49.818C36.3596 49.6601 36.3877 49.5302 36.2578 49.5021L36.3421 49.1126C36.3077 49.1051 36.2776 49.0843 36.2585 49.0547C36.2395 49.0251 36.2329 48.9891 36.2404 48.9547C36.2478 48.9202 36.2686 48.8902 36.2983 48.8711C36.3279 48.852 36.3639 48.8455 36.3983 48.8529L36.4264 48.7231C36.4893 48.6875 36.5587 48.6651 36.6305 48.6573C36.7023 48.6494 36.775 48.6563 36.844 48.6775C37.0207 48.8256 37.2364 48.9195 37.4652 48.9479L37.4371 49.0777L37.6967 49.1339C38.4113 49.737 39.0885 50.3828 39.7248 51.0679L45.0862 56.4418L52.7528 64.3533L53.3178 64.8833L54.3914 66.203C54.4765 66.3198 54.5844 66.418 54.7087 66.4916C54.833 66.5653 54.971 66.6128 55.1143 66.6313L55.0862 66.7611L56.216 67.8212C56.4252 68.0766 56.6987 68.2717 57.0083 68.3865C57.3179 68.5013 57.6524 68.5315 57.9776 68.4742C58.3244 68.4942 58.6708 68.4288 58.9866 68.2839C59.3023 68.139 59.5777 67.9188 59.7886 67.6428C60.0342 67.3963 60.2262 67.1017 60.3526 66.7775C60.4789 66.4533 60.5368 66.1065 60.5227 65.7588C60.5086 65.4111 60.4228 65.0701 60.2706 64.7572C60.1184 64.4442 59.9031 64.1662 59.6383 63.9404L55.6384 59.8126L53.5473 56.9135C52.1684 55.12 50.8176 53.1966 49.3932 50.9854C47.9688 48.7742 44.3341 42.9585 42.0502 39.0662C41.8186 38.8802 41.7449 38.5924 41.6432 38.4345L41.6713 38.3046C41.5695 38.1467 41.5976 38.0168 41.4678 37.9887L41.2188 37.2552L41.4154 36.3463C41.4435 36.2165 41.4716 36.0866 41.6015 36.1147C41.7313 36.1428 41.7594 36.013 41.8893 36.0411L42.149 36.0973C42.2788 36.1254 42.4086 36.1535 42.3805 36.2833L42.6402 36.3395C42.6747 36.347 42.7047 36.3678 42.7238 36.3974C42.7429 36.427 42.7494 36.463 42.742 36.4975L43.177 36.9994C43.5005 37.2649 43.801 37.5573 44.0753 37.8734C45.6402 39.4353 47.1489 41.257 48.991 43.4226C50.833 45.5882 51.7313 46.4622 53.2119 48.4137C56.6644 52.5589 60.0607 56.9638 63.2991 61.4704C63.6815 62.0513 64.2765 62.459 64.9562 62.6061C65.636 62.7532 66.3463 62.6279 66.9347 62.2572C67.5134 61.8173 67.8975 61.1689 68.0054 60.45C68.0751 60.1608 68.0834 59.8602 68.0296 59.5676C67.9759 59.275 67.8613 58.997 67.6933 58.7514L58.8484 46.2354L54.0034 37.8471L53.4491 36.6397L53.0702 35.8781L53.1264 35.6184L52.9229 35.3026L52.951 35.1727C52.9287 35.1424 52.913 35.1076 52.9051 35.0708C52.8972 35.0339 52.8973 34.9958 52.9053 34.9589C52.9132 34.9221 52.9289 34.8874 52.9514 34.8571C52.9738 34.8268 53.0024 34.8016 53.0353 34.7832C53.0634 34.6534 53.1933 34.6814 53.3231 34.7095L53.5828 34.7657L54.046 35.1378L54.5653 35.2502C55.7283 36.1821 56.8268 37.1918 57.8531 38.2724C58.3366 38.6915 58.7827 39.1518 59.1864 39.6483L59.1583 39.7781L59.4636 40.252L60.4355 41.4137Z" fill="#FFA466"/>
<path d="M60.4355 41.4137L61.9442 43.2354L63.1932 45.0008C67.386 50.1218 71.6069 55.1129 76.0139 59.8724L82.6805 66.752C82.9407 66.9411 83.1663 67.1739 83.3472 67.4399C84.2413 68.3999 85.242 69.2549 86.3297 69.9883C87.2254 70.4489 88.2524 70.587 89.2379 70.3795C90.2235 70.1719 91.1075 69.6314 91.7414 68.8487C94.2335 66.1258 94.5571 62.1182 94.3681 59.2229L93.9301 55.5941C93.776 53.7938 93.464 52.0952 93.4678 50.1931L94.086 47.3365L94.5142 46.6137L94.5985 46.2241L95.1566 45.5294C95.1641 45.495 95.1849 45.4649 95.2145 45.4458C95.2442 45.4267 95.2801 45.4202 95.3146 45.4276L95.3708 45.168L95.6867 44.9645C95.6941 44.93 95.7149 44.9 95.7446 44.8809C95.7742 44.8618 95.8102 44.8553 95.8446 44.8627L95.8727 44.7329C96.0025 44.761 96.1605 44.6592 96.1324 44.7891L96.3921 44.8453L96.613 45.7086L96.5568 45.9683L97.1179 48.4004L97.2545 49.6533L97.4018 50.2289L97.833 52.6329L99.2149 57.5533L100.076 67.3903C100.398 73.4405 100.562 79.5925 100.298 86.4674L100.311 88.9169C99.9374 99.438 99.6372 110.247 103.022 120.358C103.576 121.565 103.973 122.874 104.657 124.11C104.884 124.763 105.345 125.308 105.951 125.64C106.557 125.972 107.265 126.067 107.938 125.907C108.648 125.543 109.209 124.944 109.528 124.212C109.661 123.967 109.738 123.694 109.751 123.414C109.764 123.135 109.715 122.856 109.605 122.598C108.326 119.94 107.381 117.133 106.792 114.242L106.571 113.378L106.259 111.68L106.094 110.557L105.537 106.223C105.159 100.432 105.357 94.4942 105.498 88.8161L105.582 88.4265C105.978 76.5508 105.913 62.4009 103.242 48.3664L103.021 47.5031C102.47 44.3936 101.829 40.449 98.453 39.7184C95.0771 38.9879 91.9919 41.3105 90.335 43.9423C88.7847 46.619 88.1589 49.7318 88.5542 52.7997L88.8168 55.9827L89.0271 57.5234L89.3285 59.8993L88.2889 64.7035L87.8994 64.6192L87.1309 63.7733L86.7976 63.4293C84.4362 61.1513 82.1029 58.7435 79.7696 56.3356C75.131 51.39 71.2434 46.7429 67.0787 41.4921L66.1349 40.2005C64.5167 38.057 62.7832 36.003 60.9421 34.0476C58.914 32.1136 56.2929 29.7794 53.3802 29.4209C52.5593 29.2887 51.7195 29.3372 50.9193 29.5632C50.1192 29.7891 49.378 30.187 48.7476 30.7291C48.4035 31.0169 48.1212 31.3714 47.9179 31.7713C47.7146 32.1711 47.5943 32.608 47.5645 33.0556L47.2205 33.3889L46.9608 33.3327C46.1076 32.3638 45.0128 31.6382 43.788 31.2299C42.5632 30.8216 41.252 30.7452 39.9881 31.0083C38.6446 31.4107 37.4961 32.2932 36.7613 33.4877C36.0266 34.6823 35.7569 36.1054 36.0038 37.4859C36.4855 39.5397 37.3573 41.4818 38.5716 43.2067L38.4873 43.5962C38.3294 43.698 38.1714 43.7997 38.0416 43.7716C37.6038 43.5371 37.109 43.43 36.6133 43.4625C35.3224 43.3768 34.0431 43.7533 33.0045 44.5247C31.9659 45.2962 31.2358 46.4121 30.9449 47.6728C30.4111 50.1398 32.039 52.6669 33.3617 54.7201L36.7754 59.6724L36.7192 59.9321L36.4033 60.1356C35.1233 60.3208 33.9407 60.9254 33.041 61.8546C32.4052 62.6372 31.9933 63.5774 31.8492 64.5753C31.705 65.5733 31.834 66.5916 32.2223 67.5221C32.9274 68.9946 33.7597 70.4027 34.7098 71.7303L34.6817 71.8602L37.7727 75.7912C41.8375 81.193 46.3327 86.2568 51.2145 90.9331C53.7058 93.2393 56.1971 95.5454 58.7164 97.7216L62.9131 100.94C64.2124 101.815 65.4591 102.766 66.6466 103.787C67.3486 104.311 67.9942 104.906 68.5729 105.563C68.7028 105.591 68.8045 105.749 68.9062 105.907L69.1097 106.223L69.9518 107.357L69.7832 108.136L70.2076 109.315L71.0003 111.933L73.0062 120.251L74.139 124.438C74.2167 124.754 74.3619 125.05 74.5648 125.305C74.7677 125.56 75.0234 125.769 75.3144 125.916C75.6091 126.106 75.9463 126.22 76.2959 126.248C76.6456 126.277 76.9968 126.218 77.3182 126.077C77.6526 125.981 77.9636 125.817 78.2315 125.595C78.4995 125.373 78.7186 125.098 78.8752 124.787C79.0318 124.477 79.1225 124.137 79.1415 123.789C79.1605 123.442 79.1075 123.094 78.9857 122.768L76.3451 111.731C75.7742 108.724 74.6438 105.851 73.0127 103.262C71.2681 101.187 69.2344 99.3738 66.974 97.8775L65.9459 96.9754C63.4081 95.1406 60.9771 93.1623 58.665 91.0503C53.868 86.8943 49.3921 82.3816 45.2755 77.5508L44.9422 77.2068L44.9703 77.077L44.3317 76.2592L42.7212 74.2796L39.8618 70.5345L39.4548 69.9028L37.1602 66.6878L36.855 66.214C36.8587 66.1969 36.859 66.1793 36.8558 66.1621C36.8527 66.145 36.8463 66.1286 36.8368 66.1139C36.8274 66.0992 36.8151 66.0866 36.8008 66.0767C36.7864 66.0667 36.7703 66.0597 36.7532 66.056L36.8937 65.4068C36.9566 65.3712 37.026 65.3488 37.0978 65.341C37.1696 65.3332 37.2423 65.3401 37.3113 65.3613L37.2832 65.4911L37.5429 65.5473C37.6728 65.5754 37.7745 65.7333 37.9044 65.7614C38.0026 65.7913 38.0856 65.8579 38.1359 65.9475C39.164 66.8496 40.1921 67.7517 41.2483 68.5239C41.6626 68.9805 42.1184 69.3976 42.6097 69.77L52.0486 77.6573C52.588 78.064 53.2517 78.2713 53.9267 78.2439C54.6017 78.2165 55.2464 77.9561 55.751 77.507C56.2131 76.9918 56.4559 76.3167 56.4279 75.6253C56.3998 74.9338 56.1031 74.2806 55.6008 73.8046C52.6943 70.9561 49.9407 67.9555 47.3518 64.8156C46.6115 63.8398 46.1483 63.4677 45.6396 62.678L43.5941 60.1965L39.8189 55.03L39.4119 54.3983C38.3115 52.95 37.325 51.4187 36.4613 49.818C36.3596 49.6601 36.3877 49.5302 36.2578 49.5021L36.3421 49.1126C36.3077 49.1051 36.2776 49.0843 36.2585 49.0547C36.2395 49.0251 36.2329 48.9891 36.2404 48.9547C36.2478 48.9202 36.2686 48.8902 36.2983 48.8711C36.3279 48.852 36.3639 48.8455 36.3983 48.8529L36.4264 48.7231C36.4893 48.6875 36.5587 48.6651 36.6305 48.6573C36.7023 48.6494 36.775 48.6563 36.844 48.6775C37.0207 48.8256 37.2364 48.9195 37.4652 48.9479L37.4371 49.0777L37.6967 49.1339C38.4113 49.737 39.0885 50.3828 39.7248 51.0679L45.0862 56.4418L52.7528 64.3533L53.3178 64.8833L54.3914 66.203C54.4765 66.3198 54.5844 66.418 54.7087 66.4916C54.833 66.5653 54.971 66.6128 55.1143 66.6313L55.0862 66.7611L56.216 67.8212C56.4252 68.0766 56.6987 68.2717 57.0083 68.3865C57.3179 68.5013 57.6524 68.5315 57.9776 68.4742C58.3244 68.4942 58.6708 68.4288 58.9866 68.2839C59.3023 68.139 59.5777 67.9188 59.7886 67.6428C60.0342 67.3963 60.2262 67.1017 60.3526 66.7775C60.4789 66.4533 60.5368 66.1065 60.5227 65.7588C60.5086 65.4111 60.4228 65.0701 60.2706 64.7572C60.1184 64.4442 59.9031 64.1662 59.6383 63.9404L55.6384 59.8126L53.5473 56.9135C52.1684 55.12 50.8176 53.1966 49.3932 50.9854C47.9688 48.7742 44.3341 42.9585 42.0502 39.0662C41.8186 38.8802 41.7449 38.5924 41.6432 38.4345L41.6713 38.3046C41.5695 38.1467 41.5976 38.0168 41.4678 37.9887L41.2188 37.2552L41.4154 36.3463C41.4435 36.2165 41.4716 36.0866 41.6015 36.1147C41.7313 36.1428 41.7594 36.013 41.8893 36.0411L42.149 36.0973C42.2788 36.1254 42.4086 36.1535 42.3805 36.2833L42.6402 36.3395C42.6747 36.347 42.7047 36.3678 42.7238 36.3974C42.7429 36.427 42.7494 36.463 42.742 36.4975L43.177 36.9994C43.5005 37.2649 43.801 37.5573 44.0753 37.8734C45.6402 39.4353 47.1489 41.257 48.991 43.4226C50.833 45.5882 51.7313 46.4622 53.2119 48.4137C56.6644 52.5589 60.0607 56.9638 63.2991 61.4704C63.6815 62.0513 64.2765 62.459 64.9562 62.6061C65.636 62.7532 66.3463 62.6279 66.9347 62.2572C67.5134 61.8173 67.8975 61.1689 68.0054 60.45C68.0751 60.1608 68.0834 59.8602 68.0296 59.5676C67.9759 59.275 67.8613 58.997 67.6933 58.7514L58.8484 46.2354L54.0034 37.8471L53.4491 36.6397L53.0702 35.8781L53.1264 35.6184L52.9229 35.3026L52.951 35.1727C52.9287 35.1424 52.913 35.1076 52.9051 35.0708C52.8972 35.0339 52.8973 34.9958 52.9053 34.9589C52.9132 34.9221 52.9289 34.8874 52.9514 34.8571C52.9738 34.8268 53.0024 34.8016 53.0353 34.7832C53.0634 34.6534 53.1933 34.6814 53.3231 34.7095L53.5828 34.7657L54.046 35.1378L54.5653 35.2502C55.7283 36.1821 56.8268 37.1918 57.8531 38.2724C58.3366 38.6915 58.7827 39.1518 59.1864 39.6483L59.1583 39.7781L59.4636 40.252L60.4355 41.4137Z" stroke="#FFA466" stroke-width="2" mask="url(#path-2-outside-1)"/>
<path d="M94.5 22C92.0625 22 90 19.9685 90 17.5676C90 15.1667 94.5 9 94.5 9C94.5 9 99 15.1667 99 17.5676C99 20.1532 96.9375 22 94.5 22Z" fill="#FFA466"/>
<path d="M75.5 36C73.0625 36 71 33.9685 71 31.5676C71 29.1667 75.5 23 75.5 23C75.5 23 80 29.1667 80 31.5676C80 34.1532 77.9375 36 75.5 36Z" fill="#FFA466"/>
<path d="M117.5 61C115.063 61 113 58.9685 113 56.5676C113 54.1667 117.5 48 117.5 48C117.5 48 122 54.1667 122 56.5676C122 59.1532 119.938 61 117.5 61Z" fill="#FFA466"/>
<path d="M18.5 64C16.0625 64 14 61.9685 14 59.5676C14 57.1667 18.5 51 18.5 51C18.5 51 23 57.1667 23 59.5676C23 62.1532 20.9375 64 18.5 64Z" fill="#FFA466"/>
<path d="M32.5 98C30.0625 98 28 95.9685 28 93.5676C28 91.1667 32.5 85 32.5 85C32.5 85 37 91.1667 37 93.5676C37 96.1532 34.9375 98 32.5 98Z" fill="#FFA466"/>
<path d="M46.5 26C44.0625 26 42 23.9685 42 21.5676C42 19.1667 46.5 13 46.5 13C46.5 13 51 19.1667 51 21.5676C51 24.1532 48.9375 26 46.5 26Z" fill="#FFA466"/>
</svg>
