<svg width="140" height="140" viewBox="0 0 140 140" fill="none" xmlns="http://www.w3.org/2000/svg">
<circle cx="70" cy="70" r="67" stroke="#44EAAC" stroke-width="6"/>
<path d="M103.992 45.9939C84.8405 45.7604 74.6485 38.9 70.992 34.4151C70.5054 33.8183 69.5114 33.8345 69.0823 34.4739C61.5734 45.6622 47.7466 46.7367 37.5777 46.0771C36.996 46.0394 36.4999 46.514 36.5006 47.097C36.5478 86.7541 39.281 100.604 70 112C104.511 102.083 104.994 87.2484 105 47.0147C105 46.4624 104.544 46.0006 103.992 45.9939Z" stroke="#44EAAC" stroke-width="6"/>
<path d="M57 75.5977L69.8211 82.9434L81.5006 55.5974" stroke="#44EAAC" stroke-width="6" stroke-linecap="round"/>
</svg>
