<svg width="22" height="26" viewBox="0 0 22 26" fill="none" xmlns="http://www.w3.org/2000/svg">
<path fill-rule="evenodd" clip-rule="evenodd" d="M5.7783 6.3934C5.7783 3.41949 8.19783 1 11.1717 1C14.1456 1 16.5651 3.41949 16.5651 6.3934V8.7137H18.855C19.3373 8.7137 19.7414 9.07837 19.7907 9.55814L20.9822 21.1285C21.0835 22.162 20.7489 23.1855 20.0641 23.9403C19.3886 24.6863 18.4219 25.1137 17.4129 25.1137H4.61893C3.60518 25.1137 2.62934 24.6775 1.94136 23.9177C1.25342 23.1573 0.916628 22.142 1.0176 21.1316L2.24117 9.55564C2.29166 9.07714 2.69556 8.7137 3.17656 8.7137H5.7783V6.3934ZM7.65971 8.7137H14.684V6.3934C14.684 4.45679 13.1083 2.88141 11.1717 2.88141C9.23509 2.88141 7.65971 4.45679 7.65971 6.3934V8.7137ZM17.4129 23.2322C17.8992 23.2322 18.346 23.035 18.6709 22.6769C19.0042 22.3091 19.1607 21.8262 19.1105 21.3173L18.0061 10.5954H4.02316L2.88931 21.3242C2.84165 21.8011 3.00437 22.2881 3.33645 22.655C3.66853 23.0218 4.13605 23.2322 4.61926 23.2322H17.4129Z" fill="#808080"/>
<path d="M16.5651 6.3934L16.0651 6.39339V6.3934H16.5651ZM16.5651 8.7137H16.0651V9.2137H16.5651V8.7137ZM19.7907 9.55814L19.2933 9.60916L19.2933 9.60936L19.7907 9.55814ZM20.9822 21.1285L21.4798 21.0797L21.4796 21.0773L20.9822 21.1285ZM20.0641 23.9403L19.6938 23.6043L19.6934 23.6047L20.0641 23.9403ZM1.94136 23.9177L1.57058 24.2531L1.57072 24.2533L1.94136 23.9177ZM1.0176 21.1316L0.520365 21.0791L0.520082 21.0819L1.0176 21.1316ZM2.24117 9.55564L2.7384 9.6082L2.73841 9.60811L2.24117 9.55564ZM5.7783 8.7137V9.2137H6.2783V8.7137H5.7783ZM14.684 8.7137V9.2137H15.184V8.7137H14.684ZM7.65971 8.7137H7.15971V9.2137H7.65971V8.7137ZM18.6709 22.6769L19.0412 23.0129L19.0414 23.0127L18.6709 22.6769ZM19.1105 21.3173L19.6081 21.2682L19.6079 21.2661L19.1105 21.3173ZM18.0061 10.5954L18.5035 10.5442L18.4573 10.0954H18.0061V10.5954ZM4.02316 10.5954V10.0954H3.57322L3.52593 10.5429L4.02316 10.5954ZM2.88931 21.3242L2.39208 21.2716L2.39179 21.2745L2.88931 21.3242ZM3.33645 22.655L2.96575 22.9905L2.96577 22.9905L3.33645 22.655ZM11.1717 0.5C7.92169 0.5 5.2783 3.14335 5.2783 6.3934H6.2783C6.2783 3.69564 8.47397 1.5 11.1717 1.5V0.5ZM17.0651 6.39341C17.0651 3.14335 14.4218 0.5 11.1717 0.5V1.5C13.8695 1.5 16.0651 3.69563 16.0651 6.39339L17.0651 6.39341ZM17.0651 8.7137V6.3934H16.0651V8.7137H17.0651ZM18.855 8.2137H16.5651V9.2137H18.855V8.2137ZM20.2881 9.50712C20.2127 8.77218 19.5935 8.2137 18.855 8.2137V9.2137C19.081 9.2137 19.2702 9.38456 19.2933 9.60916L20.2881 9.50712ZM21.4796 21.0773L20.288 9.50692L19.2933 9.60936L20.4848 21.1797L21.4796 21.0773ZM20.4343 24.2763C21.216 23.4149 21.5946 22.2509 21.4798 21.0797L20.4846 21.1773C20.5724 22.0732 20.2819 22.9562 19.6938 23.6043L20.4343 24.2763ZM17.4129 25.6137C18.5624 25.6137 19.664 25.127 20.4347 24.2759L19.6934 23.6047C19.1132 24.2455 18.2814 24.6137 17.4129 24.6137V25.6137ZM4.61893 25.6137H17.4129V24.6137H4.61893V25.6137ZM1.57072 24.2533C2.35219 25.1163 3.46203 25.6137 4.61893 25.6137V24.6137C3.74833 24.6137 2.9065 24.2387 2.31199 23.5821L1.57072 24.2533ZM0.520082 21.0819C0.404897 22.2344 0.789011 23.3893 1.57058 24.2531L2.31213 23.5822C1.71782 22.9254 1.42836 22.0495 1.51512 21.1814L0.520082 21.0819ZM1.74394 9.50309L0.520373 21.0791L1.51483 21.1842L2.7384 9.6082L1.74394 9.50309ZM3.17656 8.2137C2.43973 8.2137 1.82126 8.77025 1.74393 9.50318L2.73841 9.60811C2.76205 9.38404 2.95138 9.2137 3.17656 9.2137V8.2137ZM5.7783 8.2137H3.17656V9.2137H5.7783V8.2137ZM5.2783 6.3934V8.7137H6.2783V6.3934H5.2783ZM14.684 8.2137H7.65971V9.2137H14.684V8.2137ZM14.184 6.3934V8.7137H15.184V6.3934H14.184ZM11.1717 3.38141C12.8322 3.38141 14.184 4.73299 14.184 6.3934H15.184C15.184 4.1806 13.3844 2.38141 11.1717 2.38141V3.38141ZM8.15971 6.3934C8.15971 4.73293 9.51123 3.38141 11.1717 3.38141V2.38141C8.95895 2.38141 7.15971 4.18065 7.15971 6.3934H8.15971ZM8.15971 8.7137V6.3934H7.15971V8.7137H8.15971ZM18.3006 22.341C18.0711 22.5939 17.7591 22.7322 17.4129 22.7322V23.7322C18.0393 23.7322 18.6209 23.4761 19.0412 23.0129L18.3006 22.341ZM18.6129 21.3664C18.6497 21.7393 18.536 22.0812 18.3004 22.3412L19.0414 23.0127C19.4724 22.537 19.6717 21.9132 19.6081 21.2682L18.6129 21.3664ZM17.5088 10.6467L18.6131 21.3685L19.6079 21.2661L18.5035 10.5442L17.5088 10.6467ZM4.02316 11.0954H18.0061V10.0954H4.02316V11.0954ZM3.38655 21.3767L4.52039 10.648L3.52593 10.5429L2.39208 21.2716L3.38655 21.3767ZM3.70715 22.3195C3.46708 22.0542 3.35363 21.7062 3.38684 21.3739L2.39179 21.2745C2.32968 21.8961 2.54167 22.522 2.96575 22.9905L3.70715 22.3195ZM4.61926 22.7322C4.28115 22.7322 3.94704 22.5845 3.70713 22.3194L2.96577 22.9905C3.39001 23.4592 3.99095 23.7322 4.61926 23.7322V22.7322ZM17.4129 22.7322H4.61926V23.7322H17.4129V22.7322Z" fill="#808080"/>
</svg>
